<svg width="300" height="200" viewBox="0 0 300 200" fill="none" xmlns="http://www.w3.org/2000/svg">
<path d="M195.387 169.816C231.919 169.816 261.534 140.25 261.534 103.779C261.534 67.3074 231.919 37.7415 195.387 37.7415C158.855 37.7415 129.24 67.3074 129.24 103.779C129.24 140.25 158.855 169.816 195.387 169.816Z" fill="var(--colors-category-world-high1)"/>
<path fill-rule="evenodd" clip-rule="evenodd" d="M195.387 39.1079C159.611 39.1079 130.608 68.0621 130.608 103.779C130.608 139.496 159.611 168.45 195.387 168.45C231.163 168.45 260.165 139.496 260.165 103.779C260.165 68.0621 231.163 39.1079 195.387 39.1079ZM127.871 103.779C127.871 66.5529 158.099 36.3752 195.387 36.3752C232.675 36.3752 262.902 66.5529 262.902 103.779C262.902 141.005 232.675 171.183 195.387 171.183C158.099 171.183 127.871 141.005 127.871 103.779Z" fill="var(--colors-category-world-low2)"/>
<path fill-rule="evenodd" clip-rule="evenodd" d="M191.064 169.676C176.924 151.454 168.505 128.59 168.505 103.779C168.505 78.9668 176.924 56.1025 191.064 37.8804" fill="var(--colors-category-world-high1)"/>
<path fill-rule="evenodd" clip-rule="evenodd" d="M191.902 36.8002C192.5 37.2623 192.609 38.1205 192.146 38.717C178.185 56.7085 169.873 79.2806 169.873 103.779C169.873 128.276 178.185 150.848 192.146 168.84C192.609 169.436 192.5 170.294 191.902 170.756C191.305 171.219 190.445 171.11 189.982 170.513C175.663 152.06 167.136 128.904 167.136 103.779C167.136 78.6529 175.663 55.4964 189.982 37.0435C190.445 36.447 191.305 36.3381 191.902 36.8002Z" fill="var(--colors-category-world-low2)"/>
<path fill-rule="evenodd" clip-rule="evenodd" d="M199.708 37.8804C213.848 56.1025 222.268 78.9668 222.268 103.779C222.268 128.59 213.848 151.454 199.708 169.676" fill="var(--colors-category-world-high1)"/>
<path fill-rule="evenodd" clip-rule="evenodd" d="M198.869 36.8002C199.467 36.3381 200.327 36.447 200.789 37.0435C215.109 55.4964 223.636 78.6529 223.636 103.779C223.636 128.904 215.109 152.06 200.789 170.513C200.327 171.11 199.467 171.219 198.869 170.756C198.272 170.294 198.163 169.436 198.626 168.84C212.587 150.848 220.899 128.276 220.899 103.779C220.899 79.2806 212.587 56.7085 198.626 38.717C198.163 38.1205 198.272 37.2623 198.869 36.8002Z" fill="var(--colors-category-world-low2)"/>
<path fill-rule="evenodd" clip-rule="evenodd" d="M132.944 82.0165C132.944 81.2619 133.557 80.6501 134.313 80.6501H256.459C257.215 80.6501 257.827 81.2619 257.827 82.0165C257.827 82.771 257.215 83.3828 256.459 83.3828H134.313C133.557 83.3828 132.944 82.771 132.944 82.0165Z" fill="var(--colors-category-world-low2)"/>
<path fill-rule="evenodd" clip-rule="evenodd" d="M132.944 125.54C132.944 124.786 133.557 124.174 134.313 124.174H256.459C257.215 124.174 257.827 124.786 257.827 125.54C257.827 126.295 257.215 126.907 256.459 126.907H134.313C133.557 126.907 132.944 126.295 132.944 125.54Z" fill="var(--colors-category-world-low2)"/>
<path fill-rule="evenodd" clip-rule="evenodd" d="M235.811 144.68C236.177 145.391 235.892 146.262 235.175 146.625C232.701 147.877 227.339 150.59 224.865 151.842C224.147 152.205 223.268 151.923 222.902 151.211C221.913 149.291 220.061 145.697 219.071 143.777C218.705 143.067 217.826 142.784 217.108 143.147C215.045 144.191 211 146.238 208.521 147.492C208.071 147.72 207.534 147.701 207.101 147.442C206.669 147.182 206.403 146.72 206.398 146.218C206.323 138.516 206.083 113.931 206 105.46C205.994 104.912 206.302 104.407 206.795 104.158C207.288 103.909 207.881 103.957 208.326 104.283C215.202 109.316 235.156 123.927 241.408 128.504C241.815 128.802 242.036 129.286 241.995 129.786C241.954 130.285 241.654 130.727 241.205 130.955C238.725 132.209 234.68 134.256 232.616 135.301C231.899 135.663 231.615 136.534 231.981 137.246C232.97 139.166 234.821 142.76 235.811 144.68Z" fill="var(--colors-category-world-low2)"/>
<path d="M109.592 156.245C138.617 156.245 162.146 132.755 162.146 103.779C162.146 74.8026 138.617 51.3127 109.592 51.3127C80.568 51.3127 57.0391 74.8026 57.0391 103.779C57.0391 132.755 80.568 156.245 109.592 156.245Z" fill="var(--colors-category-world-high1)"/>
<path fill-rule="evenodd" clip-rule="evenodd" d="M109.592 51.3127C138.597 51.3127 162.146 74.8219 162.146 103.779C162.146 132.735 138.597 156.245 109.592 156.245C80.5873 156.245 57.0391 132.735 57.0391 103.779C57.0391 74.8219 80.5873 51.3127 109.592 51.3127ZM109.592 60.0571C85.4211 60.0571 65.7979 79.6477 65.7979 103.779C65.7979 127.909 85.4211 147.501 109.592 147.501C133.764 147.501 153.387 127.909 153.387 103.779C153.387 79.6477 133.764 60.0571 109.592 60.0571Z" fill="var(--colors-category-world-low2)"/>
<path d="M109.593 110.337C113.221 110.337 116.162 107.401 116.162 103.779C116.162 100.157 113.221 97.2207 109.593 97.2207C105.965 97.2207 103.023 100.157 103.023 103.779C103.023 107.401 105.965 110.337 109.593 110.337Z" fill="var(--colors-category-world-low2)"/>
<path fill-rule="evenodd" clip-rule="evenodd" d="M112.626 102.523C113.32 104.194 112.525 106.115 110.85 106.808C109.176 107.501 107.252 106.706 106.558 105.035L92.2603 70.606C91.565 68.9347 92.361 67.0142 94.0361 66.3212C95.7102 65.6283 97.6338 66.4229 98.328 68.0942L112.626 102.523Z" fill="var(--colors-category-world-low2)"/>
<path fill-rule="evenodd" clip-rule="evenodd" d="M110.215 106.998C108.436 107.341 106.712 106.177 106.368 104.401C106.023 102.624 107.189 100.902 108.969 100.559L133.632 95.7998C135.413 95.4565 137.137 96.6206 137.481 98.3979C137.825 100.174 136.658 101.896 134.879 102.239L110.215 106.998Z" fill="var(--colors-category-world-low2)"/>
</svg>
