<svg width="300" height="200" viewBox="0 0 300 200" fill="none" xmlns="http://www.w3.org/2000/svg">
<path fill-rule="evenodd" clip-rule="evenodd" d="M249.105 159.574C249.247 159.181 249.188 158.744 248.947 158.403C248.706 158.062 248.314 157.858 247.896 157.858C233.453 157.849 140.172 157.849 126.526 157.849C125.471 157.848 124.513 158.465 124.08 159.425C121.478 165.24 121.604 170.713 124.065 175.895C124.509 176.821 125.446 177.411 126.476 177.411C139.968 177.42 233.81 177.42 247.982 177.42C248.393 177.42 248.78 177.225 249.024 176.894C249.269 176.562 249.34 176.135 249.218 175.743C247.454 170.032 247.373 164.634 249.105 159.574Z" fill="var(--colors-category-world-low2)"/>
<mask id="mask0_465_2158" style="mask-type:luminance" maskUnits="userSpaceOnUse" x="122" y="157" width="128" height="21">
<path d="M249.105 159.574C249.247 159.181 249.188 158.744 248.947 158.403C248.706 158.062 248.314 157.858 247.896 157.858C233.453 157.849 140.172 157.849 126.526 157.849C125.471 157.848 124.513 158.465 124.08 159.425C121.478 165.24 121.604 170.713 124.065 175.895C124.509 176.821 125.446 177.411 126.476 177.411C139.968 177.42 233.81 177.42 247.982 177.42C248.393 177.42 248.78 177.225 249.024 176.894C249.269 176.562 249.34 176.135 249.218 175.743C247.454 170.032 247.373 164.634 249.105 159.574Z" fill="white"/>
</mask>
<g mask="url(#mask0_465_2158)">
<path fill-rule="evenodd" clip-rule="evenodd" d="M178.077 155.847C178.499 154.809 179.685 154.309 180.724 154.729C181.764 155.15 182.265 156.335 181.843 157.372C179.008 164.349 179.595 170.568 181.325 177.491C181.596 178.577 180.933 179.68 179.845 179.95C178.757 180.222 177.652 179.559 177.381 178.473C175.435 170.688 174.888 163.695 178.077 155.847Z" fill="var(--colors-category-world-high1)"/>
<path fill-rule="evenodd" clip-rule="evenodd" d="M131.053 155.844C131.477 154.807 132.664 154.308 133.702 154.731C134.741 155.153 135.24 156.339 134.817 157.376C131.535 165.413 132.186 171.291 134.251 177.325C134.613 178.385 134.046 179.539 132.985 179.902C131.923 180.264 130.767 179.698 130.404 178.638C128.045 171.742 127.303 165.027 131.053 155.844Z" fill="var(--colors-category-world-high1)"/>
</g>
<path fill-rule="evenodd" clip-rule="evenodd" d="M249.631 159.913C249.665 159.762 249.628 159.604 249.531 159.484C249.435 159.363 249.288 159.294 249.133 159.294C243.199 159.293 197.804 159.293 191.501 159.293C191.067 159.293 190.687 159.582 190.574 159.999C189.112 165.433 189.19 170.521 190.568 175.318C190.686 175.725 191.061 176.005 191.487 176.005C197.745 176.006 243.303 176.006 249.155 176.006C249.306 176.006 249.45 175.938 249.546 175.822C249.644 175.705 249.683 175.551 249.655 175.402C248.623 169.893 248.585 164.72 249.631 159.913Z" fill="var(--colors-category-world-high2)"/>
<path fill-rule="evenodd" clip-rule="evenodd" d="M103.057 24.5622C102.551 24.7244 102.195 25.1791 102.161 25.7095C101.433 37.0567 93.8496 155.659 92.7174 173.361C92.6347 174.657 93.4938 175.825 94.7566 176.133C102.064 177.913 108.454 178.436 114.207 177.487C115.413 177.266 116.314 176.255 116.392 175.033C117.499 157.895 125.138 38.414 125.856 27.1921C125.889 26.6717 125.606 26.1811 125.136 25.9503C117.44 22.1861 110.03 22.3712 103.057 24.5622Z" fill="var(--colors-category-world-low2)"/>
<mask id="mask1_465_2158" style="mask-type:luminance" maskUnits="userSpaceOnUse" x="92" y="23" width="34" height="155">
<path d="M103.057 24.5622C102.551 24.7244 102.195 25.1791 102.161 25.7095C101.433 37.0567 93.8496 155.659 92.7174 173.361C92.6347 174.657 93.4938 175.825 94.7566 176.133C102.064 177.913 108.454 178.436 114.207 177.487C115.413 177.266 116.314 176.255 116.392 175.033C117.499 157.895 125.138 38.414 125.856 27.1921C125.889 26.6717 125.606 26.1811 125.136 25.9503C117.44 22.1861 110.03 22.3712 103.057 24.5622Z" fill="white"/>
</mask>
<g mask="url(#mask1_465_2158)">
<path fill-rule="evenodd" clip-rule="evenodd" d="M92.2698 157.513C90.9123 157.251 90.0253 155.937 90.2884 154.582C90.5525 153.228 91.8681 152.341 93.2256 152.605C101.804 154.269 109.905 154.229 119.198 154.8C120.577 154.885 121.629 156.072 121.544 157.45C121.46 158.827 120.27 159.877 118.89 159.791C109.365 159.206 101.063 159.22 92.2698 157.513Z" fill="var(--colors-category-world-high1)"/>
<path fill-rule="evenodd" clip-rule="evenodd" d="M99.1505 47.9593C97.7791 48.1354 96.5233 47.1672 96.3469 45.7981C96.1705 44.4299 97.1402 43.1752 98.5117 43.0001C104.745 42.1991 111.331 41.8707 117.067 42.4727C120.219 42.804 123.124 43.418 125.603 44.3652C126.894 44.8588 127.542 46.3055 127.048 47.5941C126.553 48.8826 125.104 49.5294 123.813 49.0359C121.702 48.2299 119.226 47.7284 116.544 47.4468C111.166 46.8817 104.994 47.21 99.1505 47.9593Z" fill="var(--colors-category-world-high1)"/>
</g>
<path fill-rule="evenodd" clip-rule="evenodd" d="M116.805 56.0727C116.828 55.7364 116.573 55.4448 116.236 55.4219L108.116 54.8707C107.779 54.8478 107.487 55.1015 107.464 55.4379L106.846 64.5175C106.823 64.8528 107.078 65.1443 107.415 65.1672L115.535 65.7185C115.872 65.7413 116.164 65.4876 116.187 65.1513L116.805 56.0727Z" fill="var(--colors-category-world-high1)"/>
<path fill-rule="evenodd" clip-rule="evenodd" d="M82.1849 50.3921C81.6557 50.4578 81.2211 50.8419 81.0916 51.3583C78.5949 61.2996 54.9646 155.49 51.0806 170.968C50.7637 172.233 51.4045 173.542 52.5985 174.07C58.0623 176.473 63.0138 177.807 67.6862 177.953C68.9211 177.966 70.0045 177.132 70.3055 175.935C74.0859 160.918 97.9025 65.9861 100.37 56.1513C100.498 55.6429 100.306 55.1065 99.8819 54.7961C94.1979 50.6458 88.165 49.6797 82.1849 50.3921Z" fill="var(--colors-category-world-low2)"/>
<mask id="mask2_465_2158" style="mask-type:luminance" maskUnits="userSpaceOnUse" x="51" y="50" width="50" height="128">
<path d="M82.1849 50.3921C81.6557 50.4578 81.2211 50.8419 81.0916 51.3583C78.5949 61.2996 54.9646 155.49 51.0806 170.968C50.7637 172.233 51.4045 173.542 52.5985 174.07C58.0623 176.473 63.0138 177.807 67.6862 177.953C68.9211 177.966 70.0045 177.132 70.3055 175.935C74.0859 160.918 97.9025 65.9861 100.37 56.1513C100.498 55.6429 100.306 55.1065 99.8819 54.7961C94.1979 50.6458 88.165 49.6797 82.1849 50.3921Z" fill="white"/>
</mask>
<g mask="url(#mask2_465_2158)">
<path fill-rule="evenodd" clip-rule="evenodd" d="M53.169 157.843C52.2949 157.501 51.8643 156.515 52.2062 155.644C52.549 154.772 53.5358 154.342 54.4088 154.684C61.2341 157.354 67.9228 158.549 75.5035 160.427C76.4135 160.652 76.9696 161.573 76.7444 162.482C76.5182 163.391 75.5952 163.945 74.6853 163.72C66.951 161.805 60.1318 160.568 53.169 157.843Z" fill="var(--colors-category-world-high1)"/>
<path fill-rule="evenodd" clip-rule="evenodd" d="M75.3005 68.6826C74.3636 68.6328 73.645 67.8318 73.6948 66.8975C73.7457 65.9622 74.547 65.2438 75.4839 65.2945C83.538 65.7274 92.0935 67.2298 97.3898 70.4507C98.1912 70.9373 98.4453 71.9821 97.958 72.7821C97.4696 73.5821 96.4231 73.8358 95.6217 73.3483C90.7151 70.3642 82.7636 69.0836 75.3005 68.6826Z" fill="var(--colors-category-world-high1)"/>
</g>
<path fill-rule="evenodd" clip-rule="evenodd" d="M88.2008 77.6121C88.2596 77.3752 88.1161 77.1354 87.8789 77.0757L82.163 75.6409C81.9258 75.5812 81.6846 75.7255 81.6248 75.9613L80.0151 82.3524C79.9563 82.5892 80.0998 82.83 80.3371 82.8897L86.053 84.3245C86.2902 84.3842 86.5314 84.2399 86.5902 84.0031L88.2008 77.6121Z" fill="var(--colors-category-world-high1)"/>
<path fill-rule="evenodd" clip-rule="evenodd" d="M230.224 114.628C231.316 115.717 231.316 117.487 230.224 118.576C229.134 119.665 227.362 119.665 226.27 118.576L144.409 36.8498C143.318 35.7602 143.318 33.992 144.409 32.9025C145.501 31.8129 147.272 31.8129 148.363 32.9025L230.224 114.628Z" fill="var(--colors-category-world-low2)"/>
<path d="M187.317 125.111C214.63 125.111 236.772 103.007 236.772 75.7393C236.772 48.4719 214.63 26.3672 187.317 26.3672C160.005 26.3672 137.863 48.4719 137.863 75.7393C137.863 103.007 160.005 125.111 187.317 125.111Z" fill="var(--colors-category-world-high1)"/>
<mask id="mask3_465_2158" style="mask-type:luminance" maskUnits="userSpaceOnUse" x="137" y="26" width="100" height="100">
<path d="M187.317 125.111C214.63 125.111 236.772 103.007 236.772 75.7393C236.772 48.4719 214.63 26.3672 187.317 26.3672C160.005 26.3672 137.863 48.4719 137.863 75.7393C137.863 103.007 160.005 125.111 187.317 125.111Z" fill="white"/>
</mask>
<g mask="url(#mask3_465_2158)">
<path fill-rule="evenodd" clip-rule="evenodd" d="M136.921 75.7394C140.749 73.2309 143.715 71.6269 145.199 67.608C146.684 63.5891 144.894 59.3792 148.565 60.213C152.236 61.0458 153.915 63.8419 151.402 68.2299C148.891 72.619 150.266 77.809 151.937 73.8428C153.609 69.8757 156.72 62.9981 159.822 68.2618C162.923 73.5254 159.953 79.4966 158.133 83.8747C156.314 88.2528 148.952 97.6946 153.792 97.7901C158.632 97.8846 159.781 100.29 163.28 98.5065C166.778 96.7244 165.16 96.3762 167.774 93.8657C170.387 91.3543 171.384 91.6498 177.984 90.9006C184.583 90.1523 183.279 89.1812 187.317 88.1792C191.355 87.1762 189.891 90.0249 191.478 92.3772C193.063 94.7304 194.477 95.7215 194.629 102.568C194.782 109.415 194.701 111.173 197.802 114.644C200.903 118.114 196.927 119.791 193.012 116.373C189.097 112.955 180.628 105.223 176.193 106.848C171.76 108.472 168.944 104.336 168.435 101.994C167.926 99.6528 167.438 100.063 162.77 100.491C158.104 100.918 154.138 102.406 150.446 101.984C146.756 101.562 144.333 102.113 144.333 102.113C139.493 94.9215 136.88 85.9404 136.921 75.7394Z" fill="var(--colors-category-world-low2)"/>
<path fill-rule="evenodd" clip-rule="evenodd" d="M164.804 45.0328C164.426 47.9413 162.099 52.9651 161.926 55.8457C161.754 58.7253 160.116 60.5293 157.615 57.2378C155.114 53.9462 149.686 59.7383 151.937 55.4229C154.188 51.1084 154.625 51.4885 158.56 47.396C162.496 43.3025 165.313 41.1293 164.804 45.0328Z" fill="var(--colors-category-world-low2)"/>
<path fill-rule="evenodd" clip-rule="evenodd" d="M184.268 24.9373C179.972 27.7134 178.3 36.596 179.003 42.4826C179.705 48.3691 180.602 46.999 180.098 50.787C179.593 54.5751 177.795 59.9064 181.727 58.2457C185.659 56.586 182.767 50.5831 187.317 48.6895C191.866 46.796 189.648 43.591 193.412 41.8129C197.174 40.0348 196.304 43.4437 196.501 46.2119C196.697 48.9801 193.72 51.8368 189.872 53.4099C186.023 54.984 181.447 62.3253 184.958 67.2497C188.468 72.1741 192.035 75.6129 198.439 70.193C204.843 64.7731 208.044 70.796 215.711 75.7393C223.379 80.6826 226.805 78.0607 224.727 69.2318C222.649 60.403 219.363 60.1701 218.577 54.1094C217.791 48.0487 218.919 47.6557 212.623 47.8139C210.427 47.8696 210.049 47.7811 210.25 46.7432C210.482 45.5413 214.849 46.8835 215.804 46.0348C217.645 44.4 214.607 38.995 213.319 39.4527C211.365 40.1472 211.051 39.0318 212.284 38.1233C215.594 35.6845 215.447 32.4268 215.447 32.4268C204.829 25.7681 194.4 21.5751 184.268 24.9373Z" fill="var(--colors-category-world-low2)"/>
</g>
<path fill-rule="evenodd" clip-rule="evenodd" d="M149.737 25.8189C149.427 25.409 148.965 25.1403 148.455 25.0746C147.945 25.009 147.43 25.1513 147.027 25.4697C131.786 37.6806 122.872 56.1602 122.872 75.7393C122.872 111.303 151.794 140.176 187.416 140.176C207.028 140.176 225.538 131.277 237.764 116.058C238.082 115.656 238.225 115.143 238.159 114.636C238.093 114.128 237.825 113.669 237.416 113.361C236.203 112.442 234.519 111.175 233.316 110.27C232.489 109.648 231.316 109.798 230.672 110.608C220.143 123.636 204.251 131.248 187.416 131.248C156.729 131.248 131.815 106.375 131.815 75.7393C131.815 58.9324 139.44 43.0667 152.486 32.5513C153.296 31.9105 153.444 30.7423 152.823 29.9184C151.921 28.7144 150.652 27.0329 149.737 25.8189Z" fill="var(--colors-category-world-low2)"/>
<path fill-rule="evenodd" clip-rule="evenodd" d="M168.219 148.015C168.664 148.015 169.091 147.838 169.406 147.523C169.721 147.21 169.897 146.783 169.897 146.339C169.897 143.105 169.897 136.318 169.897 136.318H198.639V146.339C198.639 146.783 198.816 147.21 199.131 147.523C199.446 147.838 199.872 148.015 200.318 148.015C202.529 148.015 206.399 148.015 208.611 148.015C209.056 148.015 209.482 148.191 209.797 148.505C210.112 148.82 210.289 149.246 210.289 149.69C210.289 151.499 210.289 154.364 210.289 156.173C210.289 156.618 210.112 157.044 209.797 157.358C209.482 157.672 209.056 157.849 208.611 157.849C200.766 157.849 167.769 157.849 159.925 157.849C159.481 157.849 159.053 157.672 158.738 157.358C158.424 157.044 158.247 156.618 158.247 156.173C158.247 154.364 158.247 151.499 158.247 149.69C158.247 149.246 158.424 148.82 158.738 148.505C159.053 148.191 159.481 148.015 159.925 148.015C162.138 148.015 166.007 148.015 168.219 148.015Z" fill="var(--colors-category-world-low2)"/>
</svg>
