<svg width="300" height="200" viewBox="0 0 300 200" fill="none" xmlns="http://www.w3.org/2000/svg">
<path fill-rule="evenodd" clip-rule="evenodd" d="M147.95 75.979C148.14 76.6598 147.979 77.39 147.521 77.9285C147.064 78.4682 146.368 78.7451 145.664 78.6707C140.558 78.1825 131.564 77.2214 127.437 76.7813C126.233 76.6522 125.36 75.574 125.489 74.3709C125.928 70.2737 126.881 61.3864 127.404 56.4999C127.478 55.8081 127.877 55.1929 128.48 54.8426C129.083 54.4923 129.817 54.4486 130.456 54.7255C131.407 55.1798 132.45 55.46 133.547 55.5771C139.593 56.2219 145.042 51.6945 145.709 45.4714C146.376 39.2495 142.008 33.6735 135.963 33.0276C134.865 32.9105 133.787 32.9641 132.753 33.1666C132.082 33.3002 131.388 33.1064 130.883 32.6456C130.377 32.1847 130.123 31.5115 130.195 30.8318C130.677 25.942 131.629 17.0547 132.068 12.9564C132.129 12.3795 132.419 11.8497 132.872 11.4852C133.325 11.1207 133.903 10.951 134.481 11.0123C144.492 12.0817 185.987 16.5117 195.998 17.5801C197.203 17.7093 198.075 18.7875 197.945 19.9905C196.875 29.9845 192.438 71.4111 191.366 81.4051C191.238 82.607 190.157 83.4772 188.953 83.3492C184.826 82.908 175.832 81.948 170.731 81.4029C170.009 81.3263 169.372 80.8972 169.031 80.2568C168.688 79.6175 168.686 78.8502 169.024 78.2076C169.675 77.0791 170.074 75.7994 170.22 74.4333C170.867 68.3975 166.332 62.9572 160.099 62.2916C153.866 61.6261 148.28 65.986 147.634 72.0219C147.487 73.388 147.607 74.7223 147.95 75.979Z" fill="var(--colors-category-games-low2)"/>
<path fill-rule="evenodd" clip-rule="evenodd" d="M146.252 166.925C145.595 166.674 144.856 166.762 144.276 167.16C143.695 167.559 143.349 168.216 143.349 168.919C143.295 174.004 143.295 183.017 143.295 187.157C143.295 188.365 142.314 189.346 141.102 189.346C131.035 189.346 89.3026 189.346 79.2349 189.346C78.0233 189.346 77.042 188.365 77.042 187.157V125.392C77.042 124.811 77.2734 124.255 77.6845 123.844C78.0957 123.434 78.6538 123.203 79.2349 123.203C83.3631 123.203 92.3156 123.203 97.2376 123.203C97.9349 123.203 98.5906 122.871 99.004 122.31C99.4163 121.749 99.538 121.026 99.3296 120.361C98.9788 119.369 98.811 118.304 98.811 117.202C98.811 111.132 103.9 106.203 110.168 106.203C116.438 106.203 121.526 111.132 121.526 117.202C121.526 118.304 121.359 119.369 121.046 120.373C120.842 121.026 120.962 121.735 121.366 122.286C121.772 122.836 122.415 123.161 123.1 123.161C128.022 123.203 136.974 123.203 141.102 123.203C142.314 123.203 143.295 124.183 143.295 125.392C143.295 129.531 143.295 138.544 143.295 143.629C143.295 144.349 143.651 145.023 144.245 145.432C144.839 145.84 145.597 145.93 146.271 145.674C147.433 145.179 148.708 144.936 150.037 144.936C156.118 144.936 161.055 150.016 161.055 156.274C161.055 162.532 156.118 167.613 150.037 167.613C148.708 167.613 147.433 167.37 146.252 166.925Z" fill="var(--colors-category-games-high1)"/>
<path fill-rule="evenodd" clip-rule="evenodd" d="M146.252 145.624C145.594 145.875 144.855 145.786 144.275 145.388C143.695 144.989 143.349 144.331 143.349 143.629C143.295 138.544 143.295 129.531 143.295 125.392C143.295 124.811 143.526 124.255 143.937 123.844C144.349 123.434 144.907 123.203 145.488 123.203C149.634 123.203 158.662 123.203 163.754 123.203C164.475 123.203 165.151 122.848 165.56 122.255C165.967 121.661 166.058 120.905 165.802 120.233C165.306 119.074 165.064 117.802 165.064 116.475C165.064 110.404 170.153 105.476 176.421 105.476C182.691 105.476 187.779 110.404 187.779 116.475C187.779 117.802 187.537 119.074 187.091 120.251C186.84 120.907 186.928 121.645 187.327 122.224C187.727 122.803 188.386 123.149 189.089 123.149C194.181 123.203 203.21 123.203 207.355 123.203C208.567 123.203 209.548 124.182 209.548 125.392C209.548 129.565 209.548 138.718 209.548 144.076C209.548 144.83 209.159 145.531 208.519 145.932C207.878 146.331 207.077 146.375 206.397 146.045C205.023 145.31 203.457 144.936 201.808 144.936C195.727 144.936 190.791 150.016 190.791 156.274C190.791 162.532 195.727 167.613 201.808 167.613C203.457 167.613 205.023 167.239 206.429 166.569C207.087 166.25 207.861 166.292 208.48 166.678C209.099 167.066 209.475 167.743 209.475 168.472C209.548 173.831 209.548 182.984 209.548 187.157C209.548 188.365 208.567 189.346 207.355 189.346C197.288 189.346 155.555 189.346 145.488 189.346C144.276 189.346 143.295 188.365 143.295 187.157C143.295 183.017 143.295 174.004 143.295 168.919C143.295 168.199 143.65 167.526 144.244 167.117C144.839 166.709 145.596 166.618 146.271 166.875C147.433 167.37 148.708 167.613 150.037 167.613C156.118 167.613 161.054 162.532 161.054 156.274C161.054 150.016 156.118 144.936 150.037 144.936C148.708 144.936 147.433 145.179 146.252 145.624Z" fill="var(--colors-category-games-low2)"/>
<path fill-rule="evenodd" clip-rule="evenodd" d="M109.302 60.3782C108.604 60.4439 107.985 60.8467 107.641 61.4553C107.296 62.0628 107.271 62.8017 107.575 63.4311C109.715 68.0034 113.614 76.1147 115.407 79.8419C115.658 80.3663 115.691 80.9672 115.499 81.5156C115.306 82.0629 114.902 82.5117 114.378 82.7635C110.641 84.5543 102.502 88.4534 97.9107 90.6536C97.2605 90.9645 96.4985 90.9372 95.8724 90.5781C95.2463 90.2202 94.8374 89.5776 94.7771 88.8606C94.7211 87.6018 94.3889 86.3495 93.8144 85.1542C91.1829 79.681 84.4594 77.437 78.8072 80.1441C73.1561 82.8522 70.7044 89.4933 73.3348 94.9665C73.9093 96.1619 74.6801 97.204 75.5924 98.0731C76.1033 98.5569 76.3424 99.2597 76.2338 99.9548C76.1253 100.649 75.6801 101.245 75.0464 101.549C70.4785 103.797 62.3395 107.696 58.6017 109.487C58.0776 109.739 57.4746 109.771 56.9263 109.579C56.377 109.386 55.9275 108.984 55.6764 108.461C53.8804 104.725 49.966 96.5833 47.7468 91.9661C47.4321 91.3126 46.8137 90.8573 46.0956 90.7489C45.3774 90.6416 44.6526 90.8956 44.1592 91.4287C43.3117 92.4193 42.2371 93.2228 40.997 93.8161C35.5148 96.4432 28.8626 93.9945 26.1499 88.3527C23.4384 82.711 25.6861 75.9976 31.1684 73.3715C32.4085 72.7771 33.7078 72.4422 35.0082 72.3459C35.7143 72.2966 36.3503 71.9014 36.7066 71.2906C37.0619 70.6798 37.0926 69.9322 36.7856 69.2951C34.6168 64.6538 30.7035 56.5119 28.9075 52.777C28.3834 51.6868 28.8439 50.3787 29.936 49.8555C39.0125 45.5065 76.6362 27.4811 85.7127 23.1321C86.8047 22.6089 88.1139 23.0686 88.638 24.1578C90.4307 27.8861 94.3297 35.9963 96.5171 40.5467C96.8274 41.1925 97.4327 41.6446 98.1399 41.7595C98.8471 41.8756 99.5664 41.638 100.066 41.1257C100.882 40.2205 101.895 39.4838 103.052 38.9299C108.533 36.3039 115.185 38.7515 117.898 44.3943C120.611 50.0361 118.362 56.7484 112.88 59.3755C111.723 59.9294 110.514 60.2578 109.302 60.3782Z" fill="var(--colors-category-games-low1)"/>
<path fill-rule="evenodd" clip-rule="evenodd" d="M233.968 126.15C234.218 125.494 234.128 124.757 233.729 124.179C233.33 123.601 232.671 123.255 231.968 123.255C226.456 123.203 216.221 123.203 211.743 123.203C210.531 123.203 209.55 122.222 209.55 121.013C209.55 116.878 209.55 107.882 209.55 102.835C209.55 102.119 209.901 101.449 210.488 101.04C211.076 100.63 211.826 100.534 212.499 100.78C213.628 101.243 214.859 101.47 216.142 101.47C222.223 101.47 227.159 96.3884 227.159 90.1304C227.159 83.8723 222.223 78.7921 216.142 78.7921C214.859 78.7921 213.628 79.0176 212.482 79.4336C211.825 79.6744 211.091 79.5803 210.517 79.1807C209.943 78.7801 209.601 78.1255 209.601 77.4271C209.55 72.3797 209.55 63.3829 209.55 59.2485C209.55 58.0389 210.531 57.0592 211.743 57.0592C221.81 57.0592 263.543 57.0592 273.61 57.0592C274.822 57.0592 275.803 58.0389 275.803 59.2485V121.013C275.803 122.222 274.822 123.203 273.61 123.203C269.811 123.203 261.966 123.203 257.321 123.203C256.601 123.203 255.927 123.556 255.518 124.148C255.109 124.741 255.017 125.496 255.272 126.168C255.762 127.323 256.002 128.588 256.002 129.907C256.002 135.978 250.912 140.906 244.644 140.906C238.376 140.906 233.287 135.978 233.287 129.907C233.287 128.588 233.527 127.323 233.968 126.15Z" fill="var(--colors-category-games-high1)"/>
<path fill-rule="evenodd" clip-rule="evenodd" d="M209.548 168.472C209.548 167.718 209.159 167.017 208.518 166.617C207.878 166.216 207.077 166.174 206.397 166.503C205.023 167.239 203.457 167.613 201.808 167.613C195.727 167.613 190.791 162.532 190.791 156.274C190.791 150.016 195.727 144.936 201.808 144.936C203.457 144.936 205.023 145.31 206.429 145.98C207.087 146.298 207.861 146.257 208.48 145.87C209.099 145.483 209.475 144.805 209.475 144.076C209.548 138.718 209.548 129.565 209.548 125.392C209.548 124.182 210.529 123.203 211.741 123.203C216.219 123.203 226.454 123.203 231.966 123.203C232.687 123.203 233.361 123.556 233.77 124.148C234.179 124.741 234.271 125.496 234.015 126.168C233.525 127.323 233.285 128.588 233.285 129.907C233.285 135.978 238.374 140.906 244.642 140.906C250.911 140.906 256 135.978 256 129.907C256 128.588 255.76 127.323 255.32 126.15C255.07 125.494 255.16 124.757 255.559 124.179C255.958 123.601 256.617 123.255 257.32 123.255C261.964 123.203 269.809 123.203 273.608 123.203C274.82 123.203 275.801 124.182 275.801 125.392V187.157C275.801 188.365 274.82 189.346 273.608 189.346H211.741C210.529 189.346 209.548 188.365 209.548 187.157C209.548 182.984 209.548 173.831 209.548 168.472Z" fill="var(--colors-category-games-low1)"/>
</svg>
