<svg width="300" height="200" viewBox="0 0 300 200" fill="none" xmlns="http://www.w3.org/2000/svg">
<path fill-rule="evenodd" clip-rule="evenodd" d="M212.26 50.2449C212.26 45.0459 208.054 40.8259 202.874 40.8259H72.3867C67.206 40.8259 63 45.0459 63 50.2449V162.166C63 167.364 67.206 171.584 72.3867 171.584H202.874C208.054 171.584 212.26 167.364 212.26 162.166V50.2449Z" fill="var(--colors-category-world-low1)"/>
<mask id="mask0_465_2163" style="mask-type:luminance" maskUnits="userSpaceOnUse" x="63" y="40" width="150" height="132">
<path d="M212.26 50.2449C212.26 45.0459 208.054 40.8259 202.874 40.8259H72.3867C67.206 40.8259 63 45.0459 63 50.2449V162.166C63 167.364 67.206 171.584 72.3867 171.584H202.874C208.054 171.584 212.26 167.364 212.26 162.166V50.2449Z" fill="white"/>
</mask>
<g mask="url(#mask0_465_2163)">
<path d="M212.261 40.8259H63V70.3699H212.261V40.8259Z" fill="var(--colors-category-world-high2)"/>
</g>
<path fill-rule="evenodd" clip-rule="evenodd" d="M82.4922 34.146C82.4922 30.754 85.237 28 88.6188 28C91.9995 28 94.7453 30.754 94.7453 34.146V47.506C94.7453 50.899 91.9995 53.653 88.6188 53.653C85.237 53.653 82.4922 50.899 82.4922 47.506V34.146ZM115.166 34.146C115.166 30.754 117.912 28 121.293 28C124.675 28 127.419 30.754 127.419 34.146V47.506C127.419 50.899 124.675 53.653 121.293 53.653C117.912 53.653 115.166 50.899 115.166 47.506V34.146ZM147.841 34.146C147.841 30.754 150.586 28 153.968 28C157.349 28 160.095 30.754 160.095 34.146V47.506C160.095 50.899 157.349 53.653 153.968 53.653C150.586 53.653 147.841 50.899 147.841 47.506V34.146ZM180.515 34.146C180.515 30.754 183.261 28 186.642 28C190.024 28 192.769 30.754 192.769 34.146V47.506C192.769 50.899 190.024 53.653 186.642 53.653C183.261 53.653 180.515 50.899 180.515 47.506V34.146Z" fill="var(--colors-category-world-low2)"/>
<path d="M101.132 70.3711H97.8652V171.585H101.132V70.3711Z" fill="var(--colors-category-world-high2)"/>
<path d="M139.264 70.3711H135.997V171.585H139.264V70.3711Z" fill="var(--colors-category-world-high2)"/>
<path d="M177.396 70.3711H174.129V171.585H177.396V70.3711Z" fill="var(--colors-category-world-high2)"/>
<path fill-rule="evenodd" clip-rule="evenodd" d="M212.26 140.277V136.631H63V140.277H212.26Z" fill="var(--colors-category-world-high2)"/>
<path fill-rule="evenodd" clip-rule="evenodd" d="M212.26 105.324V101.678H63V105.324H212.26Z" fill="var(--colors-category-world-high2)"/>
<path d="M215.334 171.584C241.755 171.584 263.174 150.094 263.174 123.584C263.174 97.0743 241.755 75.584 215.334 75.584C188.912 75.584 167.493 97.0743 167.493 123.584C167.493 150.094 188.912 171.584 215.334 171.584Z" fill="var(--colors-category-world-high2)"/>
<path fill-rule="evenodd" clip-rule="evenodd" d="M215.334 75.584C241.738 75.584 263.174 97.093 263.174 123.584C263.174 150.076 241.738 171.584 215.334 171.584C188.93 171.584 167.493 150.076 167.493 123.584C167.493 97.093 188.93 75.584 215.334 75.584ZM215.334 83.584C193.33 83.584 175.467 101.508 175.467 123.584C175.467 145.661 193.33 163.584 215.334 163.584C237.336 163.584 255.201 145.661 255.201 123.584C255.201 101.508 237.336 83.584 215.334 83.584Z" fill="var(--colors-category-world-low2)"/>
<path d="M215.334 129.584C218.636 129.584 221.314 126.898 221.314 123.584C221.314 120.27 218.636 117.584 215.334 117.584C212.031 117.584 209.354 120.27 209.354 123.584C209.354 126.898 212.031 129.584 215.334 129.584Z" fill="var(--colors-category-world-low2)"/>
<path fill-rule="evenodd" clip-rule="evenodd" d="M218.096 122.435C218.728 123.965 218.003 125.722 216.479 126.356C214.954 126.99 213.204 126.263 212.571 124.733L199.556 93.236C198.924 91.707 199.648 89.95 201.172 89.316C202.697 88.682 204.447 89.409 205.08 90.938L218.096 122.435Z" fill="var(--colors-category-world-low2)"/>
<path fill-rule="evenodd" clip-rule="evenodd" d="M215.901 126.53C214.28 126.844 212.71 125.779 212.397 124.154C212.085 122.528 213.146 120.953 214.766 120.639L237.218 116.285C238.837 115.971 240.407 117.036 240.72 118.661C241.034 120.287 239.973 121.862 238.352 122.176L215.901 126.53Z" fill="var(--colors-category-world-low2)"/>
</svg>
