<svg width="300" height="200" viewBox="0 0 300 200" fill="none" xmlns="http://www.w3.org/2000/svg">
<path fill-rule="evenodd" clip-rule="evenodd" d="M163.976 67.2029C163.906 66.6796 163.631 66.2049 163.21 65.8845C162.791 65.5641 162.26 65.4228 161.736 65.4925C146.709 67.4915 50.6443 80.2706 35.6174 82.2696C35.0942 82.3393 34.6187 82.6139 34.2978 83.0328C33.9769 83.4527 33.8354 83.982 33.9051 84.5044C35.2437 94.5323 41.3254 140.104 43.8011 158.655C44.0812 160.747 45.1815 162.644 46.8609 163.926C48.5403 165.209 50.6623 165.772 52.7583 165.493C75.9769 162.405 143.803 153.383 167.021 150.293C169.117 150.015 171.017 148.916 172.302 147.24C173.587 145.562 174.151 143.445 173.872 141.352C171.396 122.802 165.314 77.2308 163.976 67.2029Z" fill="var(--colors-category-world-low2)"/>
<mask id="mask0_465_2166" style="mask-type:luminance" maskUnits="userSpaceOnUse" x="33" y="65" width="141" height="101">
<path d="M163.976 67.2029C163.906 66.6796 163.631 66.2049 163.21 65.8845C162.791 65.5641 162.26 65.4228 161.736 65.4925C146.709 67.4915 50.6443 80.2706 35.6174 82.2696C35.0942 82.3393 34.6187 82.6139 34.2978 83.0328C33.9769 83.4527 33.8354 83.982 33.9051 84.5044C35.2437 94.5323 41.3254 140.104 43.8011 158.655C44.0812 160.747 45.1815 162.644 46.8609 163.926C48.5403 165.209 50.6623 165.772 52.7583 165.493C75.9769 162.405 143.803 153.383 167.021 150.293C169.117 150.015 171.017 148.916 172.302 147.24C173.587 145.562 174.151 143.445 173.872 141.352C171.396 122.802 165.314 77.2308 163.976 67.2029Z" fill="white"/>
</mask>
<g mask="url(#mask0_465_2166)">
<path fill-rule="evenodd" clip-rule="evenodd" d="M44.193 96.0525L30.4697 97.8784L34.2023 82.4575L47.9255 80.6316L44.193 96.0525Z" fill="var(--colors-category-world-low2)"/>
<path fill-rule="evenodd" clip-rule="evenodd" d="M57.8561 94.2356L44.1328 96.0605L47.8664 80.6396L61.5896 78.8147L57.8561 94.2356Z" fill="var(--colors-category-world-high2)"/>
<path fill-rule="evenodd" clip-rule="evenodd" d="M71.5787 92.4099L57.8555 94.2358L61.588 78.8149L75.3123 76.989L71.5787 92.4099Z" fill="var(--colors-category-world-low2)"/>
<path fill-rule="evenodd" clip-rule="evenodd" d="M85.2408 90.593L71.5176 92.4179L75.2501 76.997L88.9734 75.1721L85.2408 90.593Z" fill="var(--colors-category-world-high2)"/>
<path fill-rule="evenodd" clip-rule="evenodd" d="M98.9469 88.769L85.2236 90.5949L88.9562 75.174L102.68 73.3481L98.9469 88.769Z" fill="var(--colors-category-world-low2)"/>
<path fill-rule="evenodd" clip-rule="evenodd" d="M112.615 86.9512L98.8916 88.777L102.624 73.3562L116.347 71.5303L112.615 86.9512Z" fill="var(--colors-category-world-high2)"/>
<path fill-rule="evenodd" clip-rule="evenodd" d="M126.289 85.1323L112.565 86.9582L116.299 71.5373L130.022 69.7114L126.289 85.1323Z" fill="var(--colors-category-world-low2)"/>
<path fill-rule="evenodd" clip-rule="evenodd" d="M139.911 83.3203L126.188 85.1462L129.921 69.7253L143.644 67.8994L139.911 83.3203Z" fill="var(--colors-category-world-high2)"/>
<path fill-rule="evenodd" clip-rule="evenodd" d="M153.417 81.5232L139.693 83.3491L143.427 67.9282L157.15 66.1023L153.417 81.5232Z" fill="var(--colors-category-world-low2)"/>
<path fill-rule="evenodd" clip-rule="evenodd" d="M167.109 79.7024L153.386 81.5283L157.119 66.1064L170.843 64.2815L167.109 79.7024Z" fill="var(--colors-category-world-high2)"/>
<path fill-rule="evenodd" clip-rule="evenodd" d="M180.77 77.8855L167.047 79.7104L170.779 64.2895L184.503 62.4646L180.77 77.8855Z" fill="var(--colors-category-world-low2)"/>
</g>
<path fill-rule="evenodd" clip-rule="evenodd" d="M122.486 119.652C123.201 119.896 123.714 120.523 123.814 121.271C123.913 122.018 123.582 122.757 122.958 123.18C116.067 127.848 100.264 138.551 93.9592 142.821C93.3881 143.209 92.6556 143.273 92.0257 142.991C91.3948 142.708 90.9552 142.121 90.8645 141.438C89.9217 134.373 87.6672 117.486 86.7243 110.421C86.6336 109.737 86.9037 109.056 87.4379 108.619C87.9722 108.182 88.6958 108.052 89.3486 108.277C96.5536 110.75 114.612 116.949 122.486 119.652Z" fill="var(--colors-category-world-high2)"/>
<path fill-rule="evenodd" clip-rule="evenodd" d="M146.565 15.6267C146.097 14.6805 145.271 13.9591 144.269 13.6217C143.267 13.2834 142.172 13.3571 141.224 13.8247C123.83 22.4158 48.1523 59.7959 30.7583 68.3879C29.8115 68.8556 29.0889 69.6805 28.75 70.6805C28.4112 71.6805 28.4849 72.774 28.9533 73.7203C30.2211 76.2785 31.8756 79.6168 32.8763 81.6357C33.1105 82.1083 33.5231 82.4695 34.0244 82.6377C34.5248 82.8068 35.0729 82.771 35.5464 82.5362C49.1341 75.8247 135.998 32.9203 149.585 26.2088C150.06 25.974 150.42 25.562 150.59 25.0625C150.759 24.562 150.722 24.0158 150.488 23.5421C149.488 21.5242 147.833 18.1859 146.565 15.6267Z" fill="var(--colors-category-world-low2)"/>
<mask id="mask1_465_2166" style="mask-type:luminance" maskUnits="userSpaceOnUse" x="28" y="13" width="123" height="70">
<path d="M146.565 15.6267C146.097 14.6805 145.271 13.9591 144.269 13.6217C143.267 13.2834 142.172 13.3571 141.224 13.8247C123.83 22.4158 48.1523 59.7959 30.7583 68.3879C29.8115 68.8556 29.0889 69.6805 28.75 70.6805C28.4112 71.6805 28.4849 72.774 28.9533 73.7203C30.2211 76.2785 31.8756 79.6168 32.8763 81.6357C33.1105 82.1083 33.5231 82.4695 34.0244 82.6377C34.5248 82.8068 35.0729 82.771 35.5464 82.5362C49.1341 75.8247 135.998 32.9203 149.585 26.2088C150.06 25.974 150.42 25.562 150.59 25.0625C150.759 24.562 150.722 24.0158 150.488 23.5421C149.488 21.5242 147.833 18.1859 146.565 15.6267Z" fill="white"/>
</mask>
<g mask="url(#mask1_465_2166)">
<path fill-rule="evenodd" clip-rule="evenodd" d="M34.7592 66.4417L22.3516 72.574L34.0705 83.2894L46.4781 77.1571L34.7592 66.4417Z" fill="var(--colors-category-world-low2)"/>
<path fill-rule="evenodd" clip-rule="evenodd" d="M47.1127 60.3362L34.7051 66.4685L46.424 77.1829L58.8317 71.0516L47.1127 60.3362Z" fill="var(--colors-category-world-high2)"/>
<path fill-rule="evenodd" clip-rule="evenodd" d="M59.519 54.2048L47.1113 60.3362L58.8303 71.0516L71.2379 64.9193L59.519 54.2048Z" fill="var(--colors-category-world-low2)"/>
<path fill-rule="evenodd" clip-rule="evenodd" d="M71.8705 48.0994L59.4639 54.2317L71.1828 64.9471L83.5904 58.8148L71.8705 48.0994Z" fill="var(--colors-category-world-high2)"/>
<path fill-rule="evenodd" clip-rule="evenodd" d="M84.2621 41.9751L71.8545 48.1074L83.5734 58.8229L95.9811 52.6905L84.2621 41.9751Z" fill="var(--colors-category-world-low2)"/>
<path fill-rule="evenodd" clip-rule="evenodd" d="M96.6196 35.8674L84.2119 41.9998L95.9309 52.7152L108.338 46.5829L96.6196 35.8674Z" fill="var(--colors-category-world-high2)"/>
<path fill-rule="evenodd" clip-rule="evenodd" d="M108.983 29.7571L96.5752 35.8894L108.294 46.6048L120.702 40.4725L108.983 29.7571Z" fill="var(--colors-category-world-low2)"/>
<path fill-rule="evenodd" clip-rule="evenodd" d="M121.298 23.6704L108.891 29.8027L120.61 40.5172L133.017 34.3858L121.298 23.6704Z" fill="var(--colors-category-world-high2)"/>
<path fill-rule="evenodd" clip-rule="evenodd" d="M133.51 17.6357L121.103 23.7671L132.821 34.4825L145.229 28.3502L133.51 17.6357Z" fill="var(--colors-category-world-low2)"/>
<path fill-rule="evenodd" clip-rule="evenodd" d="M145.889 11.5173L133.482 17.6487L145.201 28.3641L157.609 22.2318L145.889 11.5173Z" fill="var(--colors-category-world-high2)"/>
<path fill-rule="evenodd" clip-rule="evenodd" d="M158.24 5.41284L145.832 11.5452L157.551 22.2606L169.959 16.1283L158.24 5.41284Z" fill="var(--colors-category-world-low2)"/>
</g>
<path fill-rule="evenodd" clip-rule="evenodd" d="M248.057 73.5124C248.108 73.2199 248.041 72.9184 247.871 72.6746C247.7 72.4308 247.438 72.2647 247.145 72.2139C240.38 71.0239 204.654 64.7433 197.889 63.5532C197.595 63.5015 197.293 63.5691 197.048 63.7393C196.805 63.9104 196.639 64.1701 196.587 64.4637C195.146 72.6328 186.2 123.352 186.2 123.352C184.856 130.963 176.556 135.876 167.674 134.313C158.793 132.752 152.672 125.304 154.015 117.694C155.357 110.083 163.658 105.17 172.539 106.732C173.09 106.829 173.631 106.948 174.16 107.09C174.369 107.145 174.591 107.111 174.774 106.995C174.956 106.88 175.082 106.693 175.119 106.48C176.428 99.0647 185.907 45.3244 185.907 45.3244C186.156 43.9174 186.953 42.6666 188.125 41.8467C189.297 41.0278 190.747 40.7064 192.157 40.9542L260.266 52.9283C263.2 53.4448 265.159 56.2378 264.643 59.1671L250.182 141.142C248.84 148.753 240.539 153.665 231.658 152.103C222.777 150.542 216.656 143.095 217.999 135.484C219.341 127.872 227.641 122.96 236.523 124.521C237.074 124.619 237.614 124.738 238.143 124.879C238.352 124.935 238.575 124.901 238.757 124.785C238.94 124.67 239.065 124.483 239.103 124.27C240.186 118.135 246.829 80.4706 248.057 73.5124Z" fill="var(--colors-category-world-high2)"/>
</svg>
