<svg width="300" height="200" viewBox="0 0 300 200" fill="none" xmlns="http://www.w3.org/2000/svg">
<path fill-rule="evenodd" clip-rule="evenodd" d="M105.031 78.5601C105.031 66.5203 95.2403 56.7456 83.1804 56.7456H39.4814C27.4215 56.7456 17.6318 66.5203 17.6318 78.5601V122.187C17.6318 134.227 27.4215 144 39.4814 144H83.1804C95.2403 144 105.031 134.227 105.031 122.187V78.5601Z" fill="var(--colors-category-mathematics-low2)"/>
<path d="M51.7205 90.8625C50.866 90.295 50.0115 89.4984 49.1571 88.4749C48.3026 87.4515 47.876 86.0298 47.876 84.2109C47.876 80.7987 49.9551 78.4111 54.112 77.0458L63.6806 73.8052H66.8412C69.2905 73.8052 71.2265 74.5154 72.6506 75.9372C74.0747 77.3589 74.7862 79.2918 74.7862 81.737V126.173C74.1601 126.344 73.2635 126.514 72.0954 126.685C70.9285 126.856 69.6606 126.941 68.2942 126.941C65.446 126.941 63.3957 126.472 62.1423 125.534C60.89 124.596 60.2627 122.79 60.2627 120.118V88.2194L51.7205 90.8625Z" fill="var(--colors-category-mathematics-high2)"/>
<path fill-rule="evenodd" clip-rule="evenodd" d="M282.17 78.5601C282.17 66.5203 272.379 56.7456 260.32 56.7456H216.62C204.561 56.7456 194.771 66.5203 194.771 78.5601V122.187C194.771 134.227 204.561 144 216.62 144H260.32C272.379 144 282.17 134.227 282.17 122.187V78.5601Z" fill="var(--colors-category-mathematics-low2)"/>
<path d="M221.299 81.9074C221.299 78.9511 222.694 76.7471 225.484 75.2978C228.275 73.8472 232.034 73.1226 236.762 73.1226C240.122 73.1226 243.083 73.5353 245.647 74.3595C248.21 75.1838 250.346 76.3068 252.055 77.7285C253.762 79.1503 255.045 80.8276 255.898 82.7604C256.752 84.6933 257.18 86.7689 257.18 88.9873C257.18 94.9575 253.791 100.643 247.013 106.045L235.822 115H256.326C256.667 115.626 256.995 116.422 257.308 117.389C257.621 118.354 257.777 119.407 257.777 120.544C257.777 122.591 257.322 124.056 256.411 124.936C255.5 125.818 254.304 126.259 252.822 126.259H223.178C221.925 125.406 220.943 124.311 220.23 122.975C219.519 121.638 219.163 120.061 219.163 118.242C219.163 116.308 219.561 114.674 220.359 113.337C221.156 112 222.039 110.935 223.008 110.138L234.797 100.075C236.278 98.8232 237.502 97.7002 238.471 96.7055C239.438 95.7109 240.222 94.8147 240.819 94.0192C241.418 93.2226 241.845 92.4835 242.101 91.8008C242.357 91.1193 242.486 90.4655 242.486 89.8392C242.486 88.2471 241.845 86.9969 240.563 86.0874C239.282 85.1768 237.502 84.7221 235.224 84.7221C232.946 84.7221 230.909 85.0772 229.115 85.7887C227.322 86.499 225.827 87.2524 224.63 88.0491C223.663 87.3664 222.865 86.5134 222.238 85.4899C221.612 84.4665 221.299 83.2727 221.299 81.9074Z" fill="var(--colors-category-mathematics-high2)"/>
<path fill-rule="evenodd" clip-rule="evenodd" d="M170.414 71.3964C172.485 73.9849 172.062 77.7597 169.47 79.8276L143.709 100.373L169.47 120.919C172.062 122.987 172.485 126.762 170.414 129.35C168.342 131.939 164.561 132.361 161.968 130.293L130.332 105.06C128.904 103.922 128.073 102.197 128.073 100.373C128.073 98.5496 128.904 96.8249 130.332 95.6865L161.968 70.4539C164.561 68.3859 168.342 68.8079 170.414 71.3964Z" fill="var(--colors-category-mathematics-high2)"/>
</svg>
