<svg width="112" height="74" viewBox="0 0 112 74" fill="none" xmlns="http://www.w3.org/2000/svg">
  <path d="M28.7031 14.4508C28.7031 11.829 30.8285 9.70361 33.4503 9.70361H47.692C50.3138 9.70361 52.4392 11.829 52.4392 14.4508V28.6924C52.4392 31.3143 50.3138 33.4397 47.692 33.4397H33.4503C30.8285 33.4397 28.7031 31.3143 28.7031 28.6924V14.4508Z" fill="#FFF" fill-opacity="var(--colors-sous-category-all-low-ratio)"/>
  <path d="M59.56 14.4508C59.56 11.829 61.6854 9.70361 64.3072 9.70361H78.5488C81.1706 9.70361 83.296 11.829 83.296 14.4508V28.6924C83.296 31.3143 81.1706 33.4397 78.5488 33.4397H64.3072C61.6854 33.4397 59.56 31.3143 59.56 28.6924V14.4508Z" fill="#FFF" fill-opacity="var(--colors-sous-category-all-low-ratio)"/>
  <path d="M28.7031 45.3077C28.7031 42.6859 30.8285 40.5605 33.4503 40.5605H47.692C50.3138 40.5605 52.4392 42.6859 52.4392 45.3077V59.5493C52.4392 62.1711 50.3138 64.2965 47.692 64.2965H33.4503C30.8285 64.2965 28.7031 62.1711 28.7031 59.5493V45.3077Z" fill="#FFF" fill-opacity="var(--colors-sous-category-all-low-ratio)"/>
  <path d="M59.56 45.3077C59.56 42.6859 61.6854 40.5605 64.3072 40.5605H78.5488C81.1706 40.5605 83.296 42.6859 83.296 45.3077V59.5493C83.296 62.1711 81.1706 64.2965 78.5488 64.2965H64.3072C61.6854 64.2965 59.56 62.1711 59.56 59.5493V45.3077Z" fill="#FFF" fill-opacity="var(--colors-sous-category-all-low-ratio)"/>
</svg>