<?xml version="1.0" encoding="UTF-8" standalone="no"?>
<!-- Uploaded to: SVG Repo, www.svgrepo.com, Generator: SVG Repo Mixer Tools -->

<svg
   xmlns:dc="http://purl.org/dc/elements/1.1/"
   xmlns:cc="http://creativecommons.org/ns#"
   xmlns:rdf="http://www.w3.org/1999/02/22-rdf-syntax-ns#"
   xmlns:svg="http://www.w3.org/2000/svg"
   xmlns="http://www.w3.org/2000/svg"
   xmlns:sodipodi="http://sodipodi.sourceforge.net/DTD/sodipodi-0.dtd"
   xmlns:inkscape="http://www.inkscape.org/namespaces/inkscape"
   fill="#000000"
   height="800px"
   width="800px"
   version="1.1"
   id="Capa_1"
   viewBox="0 0 481.312 481.312"
   xml:space="preserve"
   sodipodi:docname="feather-svgrepo-com-1.svg"
   inkscape:version="0.92.5 (2060ec1f9f, 2020-04-08)"><metadata
   id="metadata9"><rdf:RDF><cc:Work
       rdf:about=""><dc:format>image/svg+xml</dc:format><dc:type
         rdf:resource="http://purl.org/dc/dcmitype/StillImage" /><dc:title></dc:title></cc:Work></rdf:RDF></metadata><defs
   id="defs7" /><sodipodi:namedview
   pagecolor="#ffffff"
   bordercolor="#666666"
   borderopacity="1"
   objecttolerance="10"
   gridtolerance="10"
   guidetolerance="10"
   inkscape:pageopacity="0"
   inkscape:pageshadow="2"
   inkscape:window-width="1398"
   inkscape:window-height="851"
   id="namedview5"
   showgrid="false"
   showguides="true"
   inkscape:guide-bbox="true"
   inkscape:zoom="0.417193"
   inkscape:cx="291.46368"
   inkscape:cy="340.72811"
   inkscape:window-x="42"
   inkscape:window-y="25"
   inkscape:window-maximized="1"
   inkscape:current-layer="Capa_1"><sodipodi:guide
     position="33.168629,725.3835"
     orientation="0,1"
     id="guide819"
     inkscape:locked="false" /></sodipodi:namedview>

<path
   d="m 370.55798,172.89446 c 0,0 23.89871,0.009 40.29963,-20.82795 -7.0823,16.70259 -20.95386,39.62136 -47.94667,60.05977 0,0 29.4779,-0.0415 45.42573,-28.6595 -0.0673,0.48463 -0.13346,0.97094 -0.20069,1.45557 -5.61382,40.29776 -32.67016,74.54937 -70.6031,89.26509 -0.0449,0.007 -0.0725,0.0233 -0.11474,0.0413 0,0 27.95337,7.98643 51.04605,-14.51068 0.002,0.007 -0.0138,0.0148 -0.0142,0.0212 -7.79744,19.44414 -21.56071,35.71072 -39.40827,46.66149 -7.67013,4.7053 -16.40623,9.13533 -26.30689,12.9645 0,0 17.56912,4.97048 36.33074,-4.11946 -5e-4,0.015 -0.0133,0.0369 -0.028,0.0521 -12.41274,18.07926 -30.50101,31.26084 -51.47009,37.58209 -19.56979,5.89676 -41.99329,9.31511 -64.22842,5.55378 0,0 17.03792,26.93537 46.99583,25.4487 -30.59455,19.25524 -71.84659,31.19056 -101.46189,10.74288 -41.45074,31.11462 -84.04089,49.65233 -134.930888,52.82183 31.28884,-18.39521 128.524388,-56.05493 243.900128,-216.38694 -39.36669,43.87551 -86.94413,89.76359 -137.49307,126.36244 -4.93479,-12.48189 -7.64081,-27.17825 -6.64407,-43.72086 7.02848,12.94691 17.17429,19.22959 17.17429,19.22959 -0.0662,-0.17235 -0.13138,-0.344 -0.19754,-0.51636 -11.71587,-30.55378 -8.23957,-64.85099 9.32987,-92.45872 0.30203,-0.46451 0.60278,-0.93847 0.90448,-1.41073 6.35049,18.57815 20.74651,27.57179 20.74651,27.57179 -2.64626,-6.84621 -4.71342,-13.45661 -6.27194,-19.80227 -3.46542,-14.0067 0.1481,-28.82218 9.68846,-39.64082 v 0 c 0.26493,-0.30321 0.56104,-0.56458 0.82429,-0.86686 3.14659,29.32964 25.68313,55.38527 25.68313,55.38527 -4.54789,-23.19333 -4.92827,-43.59094 -3.43384,-60.4848 1.05751,-12.06026 7.14023,-23.14108 16.75866,-30.50032 0.0835,-0.0623 0.16963,-0.1315 0.255,-0.19313 1.60604,21.05455 15.03995,33.79149 15.03995,33.79149 -0.80564,-4.77918 -1.36997,-9.40732 -1.7223,-13.884 -1.42904,-17.56315 6.69301,-34.5591 21.25486,-44.48444 2.59422,19.2008 14.66009,30.74132 14.66009,30.74132 -3.60338,-21.6273 4.89173,-43.49635 22.13243,-57.03426 13.11291,-10.29378 25.18431,-21.398313 35.43288,-34.43766 -0.6813,34.06733 -12.94736,54.89344 -12.94736,54.89344 26.7009,-30.61388 29.19179,-54.927628 24.7042,-71.943937 8.13033,-14.07483 14.28132,-30.350544 17.75302,-49.827018 10.63662,15.663939 18.94724,37.020515 24.07647,61.846388 7.28603,35.185257 -6.34474,71.526047 -34.99298,93.218437 z"
   id="path2"
   inkscape:connector-curvature="0"
   style="fill:#b8dbbe;fill-opacity:1;stroke-width:0.86251956" /></svg>